%YAML 1.1
%TAG !u! tag:unity3d.com,2011:
--- !u!74 &7400000
AnimationClip:
  m_ObjectHideFlags: 0
  m_PrefabParentObject: {fileID: 0}
  m_PrefabInternal: {fileID: 0}
  m_Name: Dark01
  serializedVersion: 4
  m_AnimationType: 2
  m_Compressed: 0
  m_UseHighQualityCurve: 1
  m_RotationCurves: []
  m_CompressedRotationCurves: []
  m_PositionCurves: []
  m_ScaleCurves: []
  m_FloatCurves: []
  m_PPtrCurves:
  - curve:
    - time: 0
      value: {fileID: 21300000, guid: a3d090cc2a1ace543aa199883614d791, type: 3}
    - time: .0500000007
      value: {fileID: 21300002, guid: a3d090cc2a1ace543aa199883614d791, type: 3}
    - time: .100000001
      value: {fileID: 21300004, guid: a3d090cc2a1ace543aa199883614d791, type: 3}
    - time: .150000006
      value: {fileID: 21300006, guid: a3d090cc2a1ace543aa199883614d791, type: 3}
    - time: .200000003
      value: {fileID: 21300008, guid: a3d090cc2a1ace543aa199883614d791, type: 3}
    - time: .25
      value: {fileID: 21300010, guid: a3d090cc2a1ace543aa199883614d791, type: 3}
    - time: .300000012
      value: {fileID: 21300012, guid: a3d090cc2a1ace543aa199883614d791, type: 3}
    - time: .349999994
      value: {fileID: 21300014, guid: a3d090cc2a1ace543aa199883614d791, type: 3}
    - time: .400000006
      value: {fileID: 21300016, guid: a3d090cc2a1ace543aa199883614d791, type: 3}
    - time: .449999988
      value: {fileID: 21300018, guid: a3d090cc2a1ace543aa199883614d791, type: 3}
    - time: .5
      value: {fileID: 21300020, guid: a3d090cc2a1ace543aa199883614d791, type: 3}
    - time: .550000012
      value: {fileID: 21300022, guid: a3d090cc2a1ace543aa199883614d791, type: 3}
    - time: .600000024
      value: {fileID: 21300024, guid: a3d090cc2a1ace543aa199883614d791, type: 3}
    - time: .649999976
      value: {fileID: 21300026, guid: a3d090cc2a1ace543aa199883614d791, type: 3}
    - time: .699999988
      value: {fileID: 21300028, guid: a3d090cc2a1ace543aa199883614d791, type: 3}
    - time: .75
      value: {fileID: 21300030, guid: a3d090cc2a1ace543aa199883614d791, type: 3}
    attribute: m_Sprite
    path: 
    classID: 212
    script: {fileID: 0}
  m_SampleRate: 20
  m_WrapMode: 0
  m_Bounds:
    m_Center: {x: 0, y: 0, z: 0}
    m_Extent: {x: 0, y: 0, z: 0}
  m_ClipBindingConstant:
    genericBindings:
    - path: 0
      attribute: 0
      script: {fileID: 0}
      classID: 212
      customType: 23
      isPPtrCurve: 1
    pptrCurveMapping:
    - {fileID: 21300000, guid: a3d090cc2a1ace543aa199883614d791, type: 3}
    - {fileID: 21300002, guid: a3d090cc2a1ace543aa199883614d791, type: 3}
    - {fileID: 21300004, guid: a3d090cc2a1ace543aa199883614d791, type: 3}
    - {fileID: 21300006, guid: a3d090cc2a1ace543aa199883614d791, type: 3}
    - {fileID: 21300008, guid: a3d090cc2a1ace543aa199883614d791, type: 3}
    - {fileID: 21300010, guid: a3d090cc2a1ace543aa199883614d791, type: 3}
    - {fileID: 21300012, guid: a3d090cc2a1ace543aa199883614d791, type: 3}
    - {fileID: 21300014, guid: a3d090cc2a1ace543aa199883614d791, type: 3}
    - {fileID: 21300016, guid: a3d090cc2a1ace543aa199883614d791, type: 3}
    - {fileID: 21300018, guid: a3d090cc2a1ace543aa199883614d791, type: 3}
    - {fileID: 21300020, guid: a3d090cc2a1ace543aa199883614d791, type: 3}
    - {fileID: 21300022, guid: a3d090cc2a1ace543aa199883614d791, type: 3}
    - {fileID: 21300024, guid: a3d090cc2a1ace543aa199883614d791, type: 3}
    - {fileID: 21300026, guid: a3d090cc2a1ace543aa199883614d791, type: 3}
    - {fileID: 21300028, guid: a3d090cc2a1ace543aa199883614d791, type: 3}
    - {fileID: 21300030, guid: a3d090cc2a1ace543aa199883614d791, type: 3}
  m_AnimationClipSettings:
    serializedVersion: 2
    m_StartTime: 0
    m_StopTime: .800000012
    m_OrientationOffsetY: 0
    m_Level: 0
    m_CycleOffset: 0
    m_LoopTime: 1
    m_LoopBlend: 0
    m_LoopBlendOrientation: 0
    m_LoopBlendPositionY: 0
    m_LoopBlendPositionXZ: 0
    m_KeepOriginalOrientation: 0
    m_KeepOriginalPositionY: 1
    m_KeepOriginalPositionXZ: 0
    m_HeightFromFeet: 0
    m_Mirror: 0
  m_EditorCurves: []
  m_EulerEditorCurves: []
  m_Events: []
